\babel@toc {italian}{}
\boolfalse {citerequest}\boolfalse {citetracker}\boolfalse {pagetracker}\boolfalse {backtracker}\relax 
\babel@toc {english}{}
\babel@toc {italian}{}
\defcounter {refsection}{0}\relax 
\contentsline {chapter}{Introduzione}{iv}{chapter*.2}
\babel@toc {italian}{}
\defcounter {refsection}{0}\relax 
\contentsline {chapter}{\numberline {1}Identity Management e stato dell'arte}{1}{chapter.1}
\defcounter {refsection}{0}\relax 
\contentsline {section}{\numberline {1.1}Identity Management}{2}{section.1.1}
\defcounter {refsection}{0}\relax 
\contentsline {subsection}{\numberline {1.1.1}Definizione}{2}{subsection.1.1.1}
\babel@toc {italian}{}
\defcounter {refsection}{0}\relax 
\contentsline {chapter}{\numberline {2}Internet of Things}{3}{chapter.2}
\defcounter {refsection}{0}\relax 
\contentsline {section}{\numberline {2.1}Internet of Things}{4}{section.2.1}
\defcounter {refsection}{0}\relax 
\contentsline {subsection}{\numberline {2.1.1}Definizione}{4}{subsection.2.1.1}
\babel@toc {italian}{}
\defcounter {refsection}{0}\relax 
\contentsline {chapter}{\numberline {3}Hyperledger Fabric}{5}{chapter.3}
\defcounter {refsection}{0}\relax 
\contentsline {section}{\numberline {3.1}Premessa}{6}{section.3.1}
\defcounter {refsection}{0}\relax 
\contentsline {chapter}{Conclusioni}{7}{chapter*.3}
\defcounter {refsection}{0}\relax 
\contentsline {chapter}{Bibliografia}{8}{chapter*.3}
\defcounter {refsection}{0}\relax 
\contentsline {chapter}{Acronimi}{8}{chapter*.4}
